…
### Exercise 1

``` r
dim(nobel)
```

    ## [1] 935  26

``` r
#for getting the number of observations and variables
print(nobel)
```

    ## # A tibble: 935 × 26
    ##       id firstname      surname    year categ…¹ affil…² city  country born_date 
    ##    <dbl> <chr>          <chr>     <dbl> <chr>   <chr>   <chr> <chr>   <date>    
    ##  1     1 Wilhelm Conrad Röntgen    1901 Physics Munich… Muni… Germany 1845-03-27
    ##  2     2 Hendrik A.     Lorentz    1902 Physics Leiden… Leid… Nether… 1853-07-18
    ##  3     3 Pieter         Zeeman     1902 Physics Amster… Amst… Nether… 1865-05-25
    ##  4     4 Henri          Becquerel  1903 Physics École … Paris France  1852-12-15
    ##  5     5 Pierre         Curie      1903 Physics École … Paris France  1859-05-15
    ##  6     6 Marie          Curie      1903 Physics <NA>    <NA>  <NA>    1867-11-07
    ##  7     6 Marie          Curie      1911 Chemis… Sorbon… Paris France  1867-11-07
    ##  8     8 Lord           Rayleigh   1904 Physics Royal … Lond… United… 1842-11-12
    ##  9     9 Philipp        Lenard     1905 Physics Kiel U… Kiel  Germany 1862-06-07
    ## 10    10 J.J.           Thomson    1906 Physics Univer… Camb… United… 1856-12-18
    ## # … with 925 more rows, 17 more variables: died_date <date>, gender <chr>,
    ## #   born_city <chr>, born_country <chr>, born_country_code <chr>,
    ## #   died_city <chr>, died_country <chr>, died_country_code <chr>,
    ## #   overall_motivation <chr>, share <dbl>, motivation <chr>,
    ## #   born_country_original <chr>, born_city_original <chr>,
    ## #   died_country_original <chr>, died_city_original <chr>, city_original <chr>,
    ## #   country_original <chr>, and abbreviated variable names ¹​category, …
…
Seem like immigrants do take up some Nobel Laureates in the US. However,
their number did not exceed those NObel Laureates who are originally
from the US.

### Exercise 6

``` r
nobel %>%
  filter(country == "USA", born_country != "USA") %>%
  count(born_country)%>%
  arrange(desc(n))
```

    ## # A tibble: 37 × 2
    ##    born_country       n
    ##    <chr>          <int>
    ##  1 United Kingdom    15
    ##  2 Canada            12
    ##  3 Germany           10
    ##  4 China              6
    ##  5 Poland             6
    ##  6 France             5
    ##  7 Italy              5
    ##  8 Japan              5
    ##  9 Austria            4
    ## 10 Hungary            4
    ## # … with 27 more rows
…
